{
  "project_info": {
    "project_number": "850283928408",
    "firebase_url": "https://my-project-1524437292678.firebaseio.com",
    "project_id": "my-project-1524437292678",
    "storage_bucket": "my-project-1524437292678.appspot.com"
  },
  "client": [
    {
      "client_info": {
        "mobilesdk_app_id": "1:850283928408:android:d15577af3f2220ae",
        "android_client_info": {
          "package_name": "ie.cm"
        }
      },
      "oauth_client": [
        {
          "client_id": "850283928408-52ml98da5qhoaqsdkluckgvphj5r5nnl.apps.googleusercontent.com",
          "client_type": 3
        },
        {
          "client_id": "850283928408-rfe67oqh9qs4gctp15vdelhengcr3iki.apps.googleusercontent.com",
          "client_type": 1,
          "android_info": {
            "package_name": "ie.cm",
            "certificate_hash": "08d6db3cb7e239bf5a39380f8dbe6789b869e789"
          }
        },
        {
          "client_id": "850283928408-jr2opfcnklb83cq722u7pkc26osfon4n.apps.googleusercontent.com",
          "client_type": 3
        }
      ],
      "api_key": [
        {
          "current_key": "AIzaSyCsoWRtf5RkuhBiLVuZfKAkW3TL_G7g17g"
        }
      ],
      "services": {
        "analytics_service": {
          "status": 1
        },
        "appinvite_service": {
          "status": 2,
          "other_platform_oauth_client": [
            {
              "client_id": "850283928408-52ml98da5qhoaqsdkluckgvphj5r5nnl.apps.googleusercontent.com",
              "client_type": 3
            }
          ]
        },
        "ads_service": {
          "status": 2
        }
      }
    }
  ],
  "configuration_version": "1"
}